7 Analysis | R cookbook for analysis with IMPACT
…
Applying the function for multiple choice questions

names <- names(ds_ua14)
ng5 <- names[grepl("b10_hohh_vulnerability", names)]

vulnerability_prop_test <- zprop_compare_weighted(data_old = ds_ua14, data_new = ds_ua44, stratum = "a1_informed_consent", value_stratum = "yes", name = ng5, weights = "stratum.weight")

vulnerability_prop_test

## # A tibble: 61 × 20
##    var.id    var.old wtn.old n.old prop.old base.old base_nw.old nam.old var.new
##    <chr>     <chr>     <dbl> <int>    <dbl>    <dbl>       <int> <chr>   <chr>  
##  1 b10_hohh… chroni…  75.3      68 0.0618      1220.        1168 b10_ho… chroni…
##  2 b10_hohh… chroni…   7.38      7 0.00605     1220.        1168 b10_ho… chroni…
##  3 b10_hohh… chroni…  16.4      24 0.0134      1220.        1168 b10_ho… chroni…
##  4 b10_hohh… chroni…   0.275     1 0.000225    1220.        1168 b10_ho… <NA>   
##  5 b10_hohh… chroni…  10.4      11 0.00855     1220.        1168 b10_ho… chroni…
##  6 b10_hohh… 1       505.      496 0.414       1220.        1168 b10_ho… 1      
##  7 b10_hohh… disabi…  24.8      24 0.0204      1220.        1168 b10_ho… disabi…
##  8 b10_hohh… disabi…  12.4      10 0.0102      1220.        1168 b10_ho… disabi…
##  9 b10_hohh… disabi…   4.99      4 0.00410     1220.        1168 b10_ho… <NA>   
## 10 b10_hohh… disabi…   2.03      3 0.00167     1220.        1168 b10_ho… <NA>   
## # ℹ 51 more rows
## # ℹ 11 more variables: wtn.new <dbl>, n.new <int>, prop.new <dbl>,
## #   base.new <dbl>, base_nw.new <int>, nam.new <chr>, indctr <chr>, item <chr>,
## #   prp_tst_p <dbl>, sig <chr>, stratum <chr>
